{
  "id" : "c8ae3a5b-c28b-40a1-8aef-d4b395abca9c",
  "name" : "api_people_page1",
  "request" : {
    "url" : "/api/people/?page=1",
    "method" : "GET"
  },
  "response" : {
    "status" : 200,
    "body" : "{\"count\":20,\"next\":\"{{request.requestLine.scheme}}://{{request.requestLine.host}}:{{request.requestLine.port}}/api/people/?page=2\",\"previous\":null,\"results\":[{\"name\":\"Luke Skywalker\",\"height\":\"172\",\"mass\":\"77\",\"hair_color\":\"blond\",\"skin_color\":\"fair\",\"eye_color\":\"blue\",\"birth_year\":\"19BBY\",\"gender\":\"male\",\"homeworld\":\"{{request.requestLine.scheme}}://{{request.requestLine.host}}:{{request.requestLine.port}}/api/planets/1/\",\"films\":[\"{{request.requestLine.scheme}}://{{request.requestLine.host}}:{{request.requestLine.port}}/api/films/2/\",\"{{request.requestLine.scheme}}://{{request.requestLine.host}}:{{request.requestLine.port}}/api/films/6/\",\"{{request.requestLine.scheme}}://{{request.requestLine.host}}:{{request.requestLine.port}}/api/films/3/\",\"{{request.requestLine.scheme}}://{{request.requestLine.host}}:{{request.requestLine.port}}/api/films/1/\",\"{{request.requestLine.scheme}}://{{request.requestLine.host}}:{{request.requestLine.port}}/api/films/7/\"],\"species\":[\"{{request.requestLine.scheme}}://{{request.requestLine.host}}:{{request.requestLine.port}}/api/species/1/\"],\"vehicles\":[\"{{request.requestLine.scheme}}://{{request.requestLine.host}}:{{request.requestLine.port}}/api/vehicles/14/\",\"{{request.requestLine.scheme}}://{{request.requestLine.host}}:{{request.requestLine.port}}/api/vehicles/30/\"],\"starships\":[\"{{request.requestLine.scheme}}://{{request.requestLine.host}}:{{request.requestLine.port}}/api/starships/12/\",\"{{request.requestLine.scheme}}://{{request.requestLine.host}}:{{request.requestLine.port}}/api/starships/22/\"],\"created\":\"2014-12-09T13:50:51.644000Z\",\"edited\":\"2014-12-20T21:17:56.891000Z\",\"url\":\"{{request.requestLine.scheme}}://{{request.requestLine.host}}:{{request.requestLine.port}}/api/people/1/\"},{\"name\":\"C-3PO\",\"height\":\"167\",\"mass\":\"75\",\"hair_color\":\"n/a\",\"skin_color\":\"gold\",\"eye_color\":\"yellow\",\"birth_year\":\"112BBY\",\"gender\":\"n/a\",\"homeworld\":\"{{request.requestLine.scheme}}://{{request.requestLine.host}}:{{request.requestLine.port}}/api/planets/1/\",\"films\":[\"{{request.requestLine.scheme}}://{{request.requestLine.host}}:{{request.requestLine.port}}/api/films/2/\",\"{{request.requestLine.scheme}}://{{request.requestLine.host}}:{{request.requestLine.port}}/api/films/5/\",\"{{request.requestLine.scheme}}://{{request.requestLine.host}}:{{request.requestLine.port}}/api/films/4/\",\"{{request.requestLine.scheme}}://{{request.requestLine.host}}:{{request.requestLine.port}}/api/films/6/\",\"{{request.requestLine.scheme}}://{{request.requestLine.host}}:{{request.requestLine.port}}/api/films/3/\",\"{{request.requestLine.scheme}}://{{request.requestLine.host}}:{{request.requestLine.port}}/api/films/1/\"],\"species\":[\"{{request.requestLine.scheme}}://{{request.requestLine.host}}:{{request.requestLine.port}}/api/species/2/\"],\"vehicles\":[],\"starships\":[],\"created\":\"2014-12-10T15:10:51.357000Z\",\"edited\":\"2014-12-20T21:17:50.309000Z\",\"url\":\"{{request.requestLine.scheme}}://{{request.requestLine.host}}:{{request.requestLine.port}}/api/people/2/\"},{\"name\":\"R2-D2\",\"height\":\"96\",\"mass\":\"32\",\"hair_color\":\"n/a\",\"skin_color\":\"white, blue\",\"eye_color\":\"red\",\"birth_year\":\"33BBY\",\"gender\":\"n/a\",\"homeworld\":\"{{request.requestLine.scheme}}://{{request.requestLine.host}}:{{request.requestLine.port}}/api/planets/8/\",\"films\":[\"{{request.requestLine.scheme}}://{{request.requestLine.host}}:{{request.requestLine.port}}/api/films/2/\",\"{{request.requestLine.scheme}}://{{request.requestLine.host}}:{{request.requestLine.port}}/api/films/5/\",\"{{request.requestLine.scheme}}://{{request.requestLine.host}}:{{request.requestLine.port}}/api/films/4/\",\"{{request.requestLine.scheme}}://{{request.requestLine.host}}:{{request.requestLine.port}}/api/films/6/\",\"{{request.requestLine.scheme}}://{{request.requestLine.host}}:{{request.requestLine.port}}/api/films/3/\",\"{{request.requestLine.scheme}}://{{request.requestLine.host}}:{{request.requestLine.port}}/api/films/1/\",\"{{request.requestLine.scheme}}://{{request.requestLine.host}}:{{request.requestLine.port}}/api/films/7/\"],\"species\":[\"{{request.requestLine.scheme}}://{{request.requestLine.host}}:{{request.requestLine.port}}/api/species/2/\"],\"vehicles\":[],\"starships\":[],\"created\":\"2014-12-10T15:11:50.376000Z\",\"edited\":\"2014-12-20T21:17:50.311000Z\",\"url\":\"{{request.requestLine.scheme}}://{{request.requestLine.host}}:{{request.requestLine.port}}/api/people/3/\"},{\"name\":\"Darth Vader\",\"height\":\"202\",\"mass\":\"136\",\"hair_color\":\"none\",\"skin_color\":\"white\",\"eye_color\":\"yellow\",\"birth_year\":\"41.9BBY\",\"gender\":\"male\",\"homeworld\":\"{{request.requestLine.scheme}}://{{request.requestLine.host}}:{{request.requestLine.port}}/api/planets/1/\",\"films\":[\"{{request.requestLine.scheme}}://{{request.requestLine.host}}:{{request.requestLine.port}}/api/films/2/\",\"{{request.requestLine.scheme}}://{{request.requestLine.host}}:{{request.requestLine.port}}/api/films/6/\",\"{{request.requestLine.scheme}}://{{request.requestLine.host}}:{{request.requestLine.port}}/api/films/3/\",\"{{request.requestLine.scheme}}://{{request.requestLine.host}}:{{request.requestLine.port}}/api/films/1/\"],\"species\":[\"{{request.requestLine.scheme}}://{{request.requestLine.host}}:{{request.requestLine.port}}/api/species/1/\"],\"vehicles\":[],\"starships\":[\"{{request.requestLine.scheme}}://{{request.requestLine.host}}:{{request.requestLine.port}}/api/starships/13/\"],\"created\":\"2014-12-10T15:18:20.704000Z\",\"edited\":\"2014-12-20T21:17:50.313000Z\",\"url\":\"{{request.requestLine.scheme}}://{{request.requestLine.host}}:{{request.requestLine.port}}/api/people/4/\"},{\"name\":\"Leia Organa\",\"height\":\"150\",\"mass\":\"49\",\"hair_color\":\"brown\",\"skin_color\":\"light\",\"eye_color\":\"brown\",\"birth_year\":\"19BBY\",\"gender\":\"female\",\"homeworld\":\"{{request.requestLine.scheme}}://{{request.requestLine.host}}:{{request.requestLine.port}}/api/planets/2/\",\"films\":[\"{{request.requestLine.scheme}}://{{request.requestLine.host}}:{{request.requestLine.port}}/api/films/2/\",\"{{request.requestLine.scheme}}://{{request.requestLine.host}}:{{request.requestLine.port}}/api/films/6/\",\"{{request.requestLine.scheme}}://{{request.requestLine.host}}:{{request.requestLine.port}}/api/films/3/\",\"{{request.requestLine.scheme}}://{{request.requestLine.host}}:{{request.requestLine.port}}/api/films/1/\",\"{{request.requestLine.scheme}}://{{request.requestLine.host}}:{{request.requestLine.port}}/api/films/7/\"],\"species\":[\"{{request.requestLine.scheme}}://{{request.requestLine.host}}:{{request.requestLine.port}}/api/species/1/\"],\"vehicles\":[\"{{request.requestLine.scheme}}://{{request.requestLine.host}}:{{request.requestLine.port}}/api/vehicles/30/\"],\"starships\":[],\"created\":\"2014-12-10T15:20:09.791000Z\",\"edited\":\"2014-12-20T21:17:50.315000Z\",\"url\":\"{{request.requestLine.scheme}}://{{request.requestLine.host}}:{{request.requestLine.port}}/api/people/5/\"},{\"name\":\"Owen Lars\",\"height\":\"178\",\"mass\":\"120\",\"hair_color\":\"brown, grey\",\"skin_color\":\"light\",\"eye_color\":\"blue\",\"birth_year\":\"52BBY\",\"gender\":\"male\",\"homeworld\":\"{{request.requestLine.scheme}}://{{request.requestLine.host}}:{{request.requestLine.port}}/api/planets/1/\",\"films\":[\"{{request.requestLine.scheme}}://{{request.requestLine.host}}:{{request.requestLine.port}}/api/films/5/\",\"{{request.requestLine.scheme}}://{{request.requestLine.host}}:{{request.requestLine.port}}/api/films/6/\",\"{{request.requestLine.scheme}}://{{request.requestLine.host}}:{{request.requestLine.port}}/api/films/1/\"],\"species\":[\"{{request.requestLine.scheme}}://{{request.requestLine.host}}:{{request.requestLine.port}}/api/species/1/\"],\"vehicles\":[],\"starships\":[],\"created\":\"2014-12-10T15:52:14.024000Z\",\"edited\":\"2014-12-20T21:17:50.317000Z\",\"url\":\"{{request.requestLine.scheme}}://{{request.requestLine.host}}:{{request.requestLine.port}}/api/people/6/\"},{\"name\":\"Beru Whitesun lars\",\"height\":\"165\",\"mass\":\"75\",\"hair_color\":\"brown\",\"skin_color\":\"light\",\"eye_color\":\"blue\",\"birth_year\":\"47BBY\",\"gender\":\"female\",\"homeworld\":\"{{request.requestLine.scheme}}://{{request.requestLine.host}}:{{request.requestLine.port}}/api/planets/1/\",\"films\":[\"{{request.requestLine.scheme}}://{{request.requestLine.host}}:{{request.requestLine.port}}/api/films/5/\",\"{{request.requestLine.scheme}}://{{request.requestLine.host}}:{{request.requestLine.port}}/api/films/6/\",\"{{request.requestLine.scheme}}://{{request.requestLine.host}}:{{request.requestLine.port}}/api/films/1/\"],\"species\":[\"{{request.requestLine.scheme}}://{{request.requestLine.host}}:{{request.requestLine.port}}/api/species/1/\"],\"vehicles\":[],\"starships\":[],\"created\":\"2014-12-10T15:53:41.121000Z\",\"edited\":\"2014-12-20T21:17:50.319000Z\",\"url\":\"{{request.requestLine.scheme}}://{{request.requestLine.host}}:{{request.requestLine.port}}/api/people/7/\"},{\"name\":\"R5-D4\",\"height\":\"97\",\"mass\":\"32\",\"hair_color\":\"n/a\",\"skin_color\":\"white, red\",\"eye_color\":\"red\",\"birth_year\":\"unknown\",\"gender\":\"n/a\",\"homeworld\":\"{{request.requestLine.scheme}}://{{request.requestLine.host}}:{{request.requestLine.port}}/api/planets/1/\",\"films\":[\"{{request.requestLine.scheme}}://{{request.requestLine.host}}:{{request.requestLine.port}}/api/films/1/\"],\"species\":[\"{{request.requestLine.scheme}}://{{request.requestLine.host}}:{{request.requestLine.port}}/api/species/2/\"],\"vehicles\":[],\"starships\":[],\"created\":\"2014-12-10T15:57:50.959000Z\",\"edited\":\"2014-12-20T21:17:50.321000Z\",\"url\":\"{{request.requestLine.scheme}}://{{request.requestLine.host}}:{{request.requestLine.port}}/api/people/8/\"},{\"name\":\"Biggs Darklighter\",\"height\":\"183\",\"mass\":\"84\",\"hair_color\":\"black\",\"skin_color\":\"light\",\"eye_color\":\"brown\",\"birth_year\":\"24BBY\",\"gender\":\"male\",\"homeworld\":\"{{request.requestLine.scheme}}://{{request.requestLine.host}}:{{request.requestLine.port}}/api/planets/1/\",\"films\":[\"{{request.requestLine.scheme}}://{{request.requestLine.host}}:{{request.requestLine.port}}/api/films/1/\"],\"species\":[\"{{request.requestLine.scheme}}://{{request.requestLine.host}}:{{request.requestLine.port}}/api/species/1/\"],\"vehicles\":[],\"starships\":[\"{{request.requestLine.scheme}}://{{request.requestLine.host}}:{{request.requestLine.port}}/api/starships/12/\"],\"created\":\"2014-12-10T15:59:50.509000Z\",\"edited\":\"2014-12-20T21:17:50.323000Z\",\"url\":\"{{request.requestLine.scheme}}://{{request.requestLine.host}}:{{request.requestLine.port}}/api/people/9/\"},{\"name\":\"Obi-Wan Kenobi\",\"height\":\"182\",\"mass\":\"77\",\"hair_color\":\"auburn, white\",\"skin_color\":\"fair\",\"eye_color\":\"blue-gray\",\"birth_year\":\"57BBY\",\"gender\":\"male\",\"homeworld\":\"{{request.requestLine.scheme}}://{{request.requestLine.host}}:{{request.requestLine.port}}/api/planets/20/\",\"films\":[\"{{request.requestLine.scheme}}://{{request.requestLine.host}}:{{request.requestLine.port}}/api/films/2/\",\"{{request.requestLine.scheme}}://{{request.requestLine.host}}:{{request.requestLine.port}}/api/films/5/\",\"{{request.requestLine.scheme}}://{{request.requestLine.host}}:{{request.requestLine.port}}/api/films/4/\",\"{{request.requestLine.scheme}}://{{request.requestLine.host}}:{{request.requestLine.port}}/api/films/6/\",\"{{request.requestLine.scheme}}://{{request.requestLine.host}}:{{request.requestLine.port}}/api/films/3/\",\"{{request.requestLine.scheme}}://{{request.requestLine.host}}:{{request.requestLine.port}}/api/films/1/\"],\"species\":[\"{{request.requestLine.scheme}}://{{request.requestLine.host}}:{{request.requestLine.port}}/api/species/1/\"],\"vehicles\":[\"{{request.requestLine.scheme}}://{{request.requestLine.host}}:{{request.requestLine.port}}/api/vehicles/38/\"],\"starships\":[\"{{request.requestLine.scheme}}://{{request.requestLine.host}}:{{request.requestLine.port}}/api/starships/48/\",\"{{request.requestLine.scheme}}://{{request.requestLine.host}}:{{request.requestLine.port}}/api/starships/59/\",\"{{request.requestLine.scheme}}://{{request.requestLine.host}}:{{request.requestLine.port}}/api/starships/64/\",\"{{request.requestLine.scheme}}://{{request.requestLine.host}}:{{request.requestLine.port}}/api/starships/65/\",\"{{request.requestLine.scheme}}://{{request.requestLine.host}}:{{request.requestLine.port}}/api/starships/74/\"],\"created\":\"2014-12-10T16:16:29.192000Z\",\"edited\":\"2014-12-20T21:17:50.325000Z\",\"url\":\"{{request.requestLine.scheme}}://{{request.requestLine.host}}:{{request.requestLine.port}}/api/people/10/\"}]}",
    "headers" : {
      "Date" : "Sat, 21 Sep 2019 21:23:10 GMT",
      "Content-Type" : "application/json",
      "Connection" : "keep-alive",
      "Set-Cookie" : "__cfduid=ddef4b20beab7eeab927855d3360ea8231569100989; expires=Sun, 20-Sep-20 21:23:09 GMT; path=/; domain=.swapi.co; HttpOnly; Secure",
      "Allow" : "GET, HEAD, OPTIONS",
      "Vary" : "Accept, Cookie",
      "X-Frame-Options" : "SAMEORIGIN",
      "Etag" : "\"d080408a4d656729b0f52a6feb0783ca\"",
      "Via" : "1.1 vegur",
      "Expect-CT" : "max-age=604800, report-uri=\"https://report-uri.cloudflare.com/cdn-cgi/beacon/expect-ct\"",
      "Server" : "cloudflare",
      "CF-RAY" : "519f1940683cd10d-TXL"
    },
    "transformers" : [ "response-template" ]
  },
  "uuid" : "c8ae3a5b-c28b-40a1-8aef-d4b395abca9c",
  "persistent" : true,
  "insertionIndex" : 38
}